{"status":"Success","statusCode":200,"errorDescription":"","error":"null","data":{"summary":{"total":4629,"query":"","sortOptions":[{"id":"multiple_sort","label":"Relevance"},{"id":"schemename-asc","label":"Scheme Name (A->Z)"},{"id":"schemename-desc","label":"Scheme Name (Z->A)"}],"appliedFilters":[],"disabledFilters":[]},"facets":[{"identifier":"beneficiaryState","label":"State","display":"ComboBoxFacet","type":"RefinementSelectFacet","entries":[{"label":"Gujarat","count":648},{"label":"All","count":602},{"label":"Uttarakhand","count":447},{"label":"Madhya Pradesh","count":290},{"label":"Puducherry","count":271},{"label":"Goa","count":270},{"label":"Haryana","count":247},{"label":"Tamil Nadu","count":236},{"label":"Rajasthan","count":160},{"label":"Bihar","count":115},{"label":"West Bengal","count":110},{"label":"Chhattisgarh","count":109},{"label":"Jharkhand","count":97},{"label":"Maharashtra","count":85},{"label":"Odisha","count":84},{"label":"Assam","count":83},{"label":"Kerala","count":83},{"label":"Meghalaya","count":66},{"label":"Himachal Pradesh","count":65},{"label":"Karnataka","count":58},{"label":"Dadra & Nagar Haveli and Daman & Diu","count":56},{"label":"Andhra Pradesh","count":52},{"label":"Delhi","count":49},{"label":"Jammu and Kashmir","count":49},{"label":"Uttar Pradesh","count":47},{"label":"Arunachal Pradesh","count":43},{"label":"Tripura","count":42},{"label":"Punjab","count":41},{"label":"Manipur","count":32},{"label":"Sikkim","count":27},{"label":"Nagaland","count":24},{"label":"Mizoram","count":23},{"label":"Telangana","count":23},{"label":"Andaman and Nicobar Islands","count":20},{"label":"Chandigarh","count":20},{"label":"Lakshadweep","count":9}]},{"identifier":"schemeCategory","label":"Scheme Category","display":"ListFacet","type":"RefinementSelectFacet","entries":[{"label":"Social welfare & Empowerment","count":1467},{"label":"Education & Learning","count":1090},{"label":"Agriculture,Rural & Environment","count":827},{"label":"Business & Entrepreneurship","count":712},{"label":"Women and Child","count":463},{"label":"Skills & Employment","count":374},{"label":"Banking,Financial Services and Insurance","count":319},{"label":"Health & Wellness","count":283},{"label":"Sports & Culture","count":255},{"label":"Housing & Shelter","count":130},{"label":"Science, IT & Communications","count":102},{"label":"Transport & Infrastructure","count":96},{"label":"Travel & Tourism","count":91},{"label":"Utility & Sanitation","count":58},{"label":"Public Safety,Law & Justice","count":29}]},{"identifier":"gender","label":"Gender","display":"ListFacet","type":"RefinementSelectFacet","entries":[{"label":"All","count":3805},{"label":"Female","count":784},{"label":"Male","count":344},{"label":"Transgender","count":32}]},{"identifier":"age-general","label":"Age","display":"ComboBoxFacet","type":"RangeFacet","entries":[{"label":0,"count":665},{"label":10,"count":3753},{"label":20,"count":3764},{"label":30,"count":3675},{"label":40,"count":3516},{"label":50,"count":3245},{"label":60,"count":3045},{"label":70,"count":2019},{"label":80,"count":1943},{"label":90,"count":1896},{"label":100,"count":1858},{"label":110,"count":1}]},{"identifier":"caste","label":"Caste","display":"ListFacet","type":"RefinementSelectFacet","entries":[{"label":"All","count":3879},{"label":"Scheduled Caste (SC)","count":384},{"label":"Scheduled Tribe (ST)","count":329},{"label":"Other Backward Class (OBC)","count":182},{"label":"General","count":66},{"label":"Particularly Vulnerable Tribal Group (PVTG)","count":39},{"label":"De-Notified, Nomadic, and Semi-Nomadic (DNT) communities","count":13}]},{"identifier":"nodalMinistryName","label":"Ministry Name","display":"ComboBoxFacet","type":"RefinementSelectFacet","entries":[{"label":"Ministry Of Social Justice and Empowerment","count":107},{"label":"Ministry of Education","count":83},{"label":"Ministry Of Science And Technology","count":69},{"label":"Ministry Of Agriculture and Farmers Welfare","count":43},{"label":"Ministry Of Commerce And Industry","count":33},{"label":"Ministry Of Micro, Small and Medium Enterprises","count":31},{"label":"Ministry Of Finance","count":18},{"label":"Ministry Of Textiles","count":18},{"label":"Ministry Of Defence","count":16},{"label":"Ministry Of Health & Family Welfare","count":15},{"label":"Ministry Of Culture","count":13},{"label":"Ministry of Fisheries,Animal Husbandry and Dairying","count":13},{"label":"Ministry Of Home Affairs","count":12},{"label":"Ministry Of Labour and Employment","count":12},{"label":"Ministry Of Minority Affairs","count":11},{"label":"Ministry Of Rural Development","count":11},{"label":"Ministry Of Tribal Affairs","count":9},{"label":"Ministry of Electronics and Information Technology","count":9},{"label":"Ministry of Women and Child Development","count":8},{"label":"Ministry Of New and Renewable Energy","count":7},{"label":"Ministry Of Youth Affairs & Sports","count":7},{"label":"Ministry Of Communication","count":6},{"label":"Ministry Of Jal Shakti","count":6},{"label":"Ministry Of Skill Development And Entrepreneurship","count":6},{"label":"Ministry Of Tourism","count":6},{"label":"Ministry Of External Affairs","count":5},{"label":"Ministry Of Housing & Urban Affairs","count":5},{"label":"Ministry Of Ayush","count":4},{"label":"Ministry Of Chemicals And Fertilizers","count":3},{"label":"Ministry Of Law and Justice","count":3},{"label":"Ministry Of Personnel, Public Grievances And Pensions","count":3},{"label":"Ministry Of Petroleum and Natural Gas","count":3},{"label":"Ministry Of Statistics and Programme Implementation","count":3},{"label":"Comptroller And Auditor General Of India","count":2},{"label":"Ministry Of Environment,forests and climate change","count":2},{"label":"Ministry Of Panchayati Raj","count":2},{"label":"Ministry Of Road Transport & Highways","count":2},{"label":"Ministry of Corporate Affairs","count":2},{"label":"Ministry of Heavy Industries","count":2},{"label":"Ministry Of Consumer Affairs, Food And Public Distribution","count":1},{"label":"Ministry Of Development Of North Eastern Region","count":1},{"label":"Ministry Of Earth Sciences","count":1},{"label":"Ministry Of Information And Broadcasting","count":1},{"label":"Ministry Of Railways","count":1},{"label":"Ministry Of Steel","count":1},{"label":"Ministry of Food Processing Industries","count":1},{"label":"Ministry of Ports,Shipping and Waterways","count":1},{"label":"NITI Aayog (National Institution for Transforming India)","count":1},{"label":"The Lokpal of India","count":1}]},{"identifier":"level","label":"Level","display":"ListFacet","type":"RefinementSelectFacet","entries":[{"label":"State","count":4009},{"label":"Central","count":620}]},{"identifier":"residence","label":"Residence","display":"ListFacet","type":"RefinementSelectFacet","entries":[{"label":"Both","count":4396},{"label":"Rural","count":203},{"label":"Urban","count":41}]},{"identifier":"minority","label":"Minority","type":"CustomFacet","display":"SingleCheckBoxFacet","entries":[{"label":"No","count":4562},{"label":"Yes","count":67}]},{"identifier":"disability","label":"Differently Abled","type":"CustomFacet","display":"SingleCheckBoxFacet","entries":[{"label":"No","count":4331},{"label":"Yes","count":298}]},{"identifier":"benefitTypes","label":"Benefit Type","display":"ListFacet","type":"RefinementSelectFacet","entries":[{"label":"Cash","count":3219},{"label":"In Kind","count":771},{"label":"Composite","count":639}]},{"identifier":"dbtScheme","label":"DBT Scheme","type":"CustomFacet","display":"SingleCheckBoxFacet","entries":[{"label":"No","count":4167},{"label":"Yes","count":462}]},{"identifier":"maritalStatus","label":"Marital Status","display":"ListFacet","type":"RefinementSelectFacet","entries":[{"label":"All","count":4329},{"label":"Never Married","count":145},{"label":"Widowed","count":104},{"label":"Married","count":92},{"label":"Divorced","count":49},{"label":"Separated","count":48}]},{"identifier":"disabilityPercentage","label":"Disability Percentage","display":"ComboBoxFacet","type":"RangeFacet","entries":[{"label":0,"count":23},{"label":10,"count":26},{"label":20,"count":30},{"label":30,"count":30},{"label":40,"count":163},{"label":50,"count":167},{"label":60,"count":173},{"label":70,"count":178},{"label":80,"count":190},{"label":90,"count":190},{"label":100,"count":200}]},{"identifier":"isBpl","label":"Below Poverty Line","type":"CustomFacet","display":"SingleCheckBoxFacet","entries":[{"label":"No","count":4461},{"label":"Yes","count":168}]},{"identifier":"isEconomicDistress","label":"Economic Distress","type":"CustomFacet","display":"SingleCheckBoxFacet","entries":[{"label":"No","count":4583},{"label":"Yes","count":46}]},{"identifier":"isGovEmployee","label":"Government Employee","type":"CustomFacet","display":"SingleCheckBoxFacet","entries":[{"label":"No","count":4616},{"label":"Yes","count":13}]},{"identifier":"employmentStatus","label":"Employment Status","display":"ListFacet","type":"RefinementSelectFacet","entries":[{"label":"All","count":3504},{"label":"Employed","count":534},{"label":"Self-Employed/ Entrepreneur","count":419},{"label":"Unemployed","count":172}]},{"identifier":"isStudent","label":"Student","type":"CustomFacet","display":"SingleCheckBoxFacet","entries":[{"label":"No","count":4268},{"label":"Yes","count":361}]},{"identifier":"occupation","label":"Occupation","display":"ComboBoxFacet","type":"RefinementSelectFacet","entries":[{"label":"All","count":384},{"label":"Farmer","count":355},{"label":"Construction Worker","count":287},{"label":"Unorganized Worker","count":191},{"label":"Fishermen","count":119},{"label":"Artists","count":83},{"label":"Artisans, Spinners & Weavers","count":77},{"label":"Student","count":68},{"label":"Organized Worker","count":40},{"label":"Ex Servicemen","count":28},{"label":"Sportsperson","count":27},{"label":"Journalist","count":22},{"label":"Dairy Farmer","count":21},{"label":"Safai Karamchari","count":18},{"label":"Teacher / Faculty","count":13},{"label":"Coir Worker","count":6},{"label":"Street Vendor","count":3},{"label":"Health Worker","count":2},{"label":"Khadi Artisan","count":2},{"label":"Lawyer / Law Graduate / Advocate","count":2}]},{"identifier":"applicationMode","label":"Application Mode","display":"ListFacet","type":"RefinementSelectFacet","entries":[{"label":"Offline","count":2700},{"label":"Online","count":2237},{"label":"Online - via CSC","count":157}]},{"identifier":"schemeType","label":"Scheme Type","display":"ListFacet","type":"RefinementSelectFacet","entries":[{"label":"Central Sector Scheme","count":435},{"label":"Centrally Sponsored Scheme","count":99}]}],"hits":{"items":[{"id":"haGzF5gBXu-iUKXqH3SS","fields":{"beneficiaryState":["All"],"schemeShortTitle":"NOS-SWD","level":"Central","schemeFor":"Individual","nodalMinistryName":"Ministry Of Social Justice and Empowerment","schemeCategory":["Education & Learning","Social welfare & Empowerment"],"schemeName":"National Overseas Scholarship For Students With Disabilities","schemeCloseDate":null,"priority":1,"slug":"nos-swd","briefDescription":"A scholarship scheme by the Ministry of Social Justice & Empowerment for regular, full-time students with disabilities to obtain higher education viz., Master's degree, or Ph.D. courses from foreign universities, in one of the specified fields of study.","tags":["Scholarship","Student","Person With Disability","Higher Education","Degree","Empowerment","PhD","Post-Graduation"]},"highlight":{}},{"id":"VxezF5gB5uF80_MGIY8p","fields":{"beneficiaryState":["All"],"schemeShortTitle":"RMEWF","level":"Central","schemeFor":"Individual","nodalMinistryName":"Ministry Of Defence","schemeCategory":["Health & Wellness"],"schemeName":"RMEWF-Financial Assistance For Medical Treatment Of Ex-Servicemen","schemeCloseDate":null,"priority":1,"slug":"rmewf","briefDescription":"A scheme to provide financial assistance to a non-pensioner Ex-Servicemen/widows of ranks up to Havildar/equivalent to meet routine medical expenses.\n","tags":["Ex-Servicemen","Health Checkup","Medical Expenses","Health Treatment","Widow Of Ex-Servicemen"]},"highlight":{}},{"id":"usazF5gB0AGc0F0iKDMj","fields":{"beneficiaryState":["All"],"schemeShortTitle":"WOS-C","level":"Central","schemeFor":"Individual","nodalMinistryName":"Ministry Of Science And Technology","schemeCategory":["Skills & Employment","Social welfare & Empowerment","Science, IT & Communications","Women and Child"],"schemeName":"Women Scientist Scheme-C","schemeCloseDate":null,"priority":1,"slug":"wos-c","briefDescription":"A scheme by MoST for female candidates with a break in their career interested in addressing societal challenges through viable S&T interventions. 1-year training is provided in Intellectual Property Rights (IPRs), patent search, know-how, drafting, filing, trademarks, trade secrets, and copyright.","tags":["Women","Scientist","Science","Technology","Post-graduation","Skill"]},"highlight":{}}],"page":{"total":4629,"totalPages":1543,"pageNumber":0,"from":0,"size":3}},"sortedBy":"multiple_sort"}}